lab06/run/xrun_test_random_test.log
TOOL:	xrun	21.03-s009: Started on Nov 29, 2023 at 17:14:36 CET
xrun
	-F ../tb/tb.f
		mult_pkg.sv
		mult_bfm.sv
		-F ../tb/../../common/vdic_dut_2023.f
			vdic_dut_2023.svp
		top.sv
		+incdir+tb_classes
		+incdir+.
		+nowarn+DSEMEL
		+nowarnBADPRF
		-uvm
		-uvmhome /eda/cadence/2021-22/RHELx86/XCELIUM_21.03.009/tools/methodology/UVM/CDNS-1.2/sv
		+UVM_NO_RELNOTES
		+UVM_VERBOSITY=MEDIUM
		-linedebug
		-fsmdebug
		-uvmlinedebug
	-v93
	+nowarnDSEM2009
	+nowarnDSEMEL
	+nowarnCGDEFN
	+nowarnCOVUTA
	+nowarnBADPRF
	+nowarnXCLGNOPTM
	+nowarnRNDXCELON
	+nowarnSAWSTP
	-xmlibdirname INCA_libs
	+overwrite
	-nocopyright
	-coverage all
	-covoverwrite
	-covfile xrun_covfile.txt
	-covtest random_test
	+UVM_TESTNAME=random_test
	-l xrun_test_random_test.log

   User defined plus("+") options:
	+UVM_NO_RELNOTES
	+UVM_VERBOSITY=MEDIUM

Loading snapshot worklib.top:sv .................... Done
SVSEED default: 1
xcelium> source /eda/cadence/2021-22/RHELx86/XCELIUM_21.03.009/tools/xcelium/files/xmsimrc
xcelium> source /eda/cadence/2021-22/RHELx86/XCELIUM_21.03.009/tools/methodology/UVM/CDNS-1.2/sv/files/tcl/uvm_sim.tcl
xcelium> run
UVM_INFO @ 0: reporter [RNTST] Running test random_test...
[1;30m[103m*** Created tpgen type: random_tpgen ***[0m

UVM_INFO /eda/cadence/2021-22/RHELx86/XCELIUM_21.03.009/tools/methodology/UVM/CDNS-1.2/sv/src/base/uvm_root.svh(605) @ 0: reporter [UVMTOP] UVM testbench topology:
----------------------------------------------------------------
Name                     Type                        Size  Value
----------------------------------------------------------------
uvm_test_top             random_test                 -     @1937
  env_h                  env                         -     @2014
    command_f            uvm_tlm_fifo #(T)           -     @2045
      get_ap             uvm_analysis_port           -     @2279
      get_peek_export    uvm_get_peek_imp            -     @2179
      put_ap             uvm_analysis_port           -     @2229
      put_export         uvm_put_imp                 -     @2127
    command_monitor_h    command_monitor             -     @2509
      ap                 uvm_analysis_port           -     @2599
    coverage_h           coverage                    -     @2343
      analysis_imp       uvm_analysis_imp            -     @2393
    drive_h              driver                      -     @2312
      command_port       uvm_get_port                -     @2655
    result_monitor_h     result_monitor              -     @2540
      ap                 uvm_analysis_port           -     @2709
    scoreboard_h         scoreboard                  -     @2426
      analysis_imp       uvm_analysis_imp            -     @2476
      cmd_f              uvm_tlm_analysis_fifo #(T)  -     @2740
        analysis_export  uvm_analysis_imp            -     @2989
        get_ap           uvm_analysis_port           -     @2938
        get_peek_export  uvm_get_peek_imp            -     @2840
        put_ap           uvm_analysis_port           -     @2889
        put_export       uvm_put_imp                 -     @2791
    tpgen_h              random_tpgen                -     @2046
      command_port       uvm_put_port                -     @3047
----------------------------------------------------------------

DRIVER: arg_a=0, arg_b=0, rst_n=1 wait_result=0
Couldn't get data in driver!!!
DRIVER: arg_a=32767, arg_b=32767, rst_n=0 wait_result=1
DRIVER: arg_a=-26227, arg_b=21010, rst_n=0 wait_result=1
DRIVER: arg_a=-3722, arg_b=22509, rst_n=0 wait_result=1
DRIVER: arg_a=32767, arg_b=-31547, rst_n=0 wait_result=1
DRIVER: arg_a=29303, arg_b=-32768, rst_n=0 wait_result=1
DRIVER: arg_a=-32768, arg_b=31464, rst_n=0 wait_result=1
DRIVER: arg_a=1, arg_b=22573, rst_n=0 wait_result=1
DRIVER: arg_a=-1, arg_b=-32768, rst_n=0 wait_result=1
DRIVER: arg_a=0, arg_b=-32768, rst_n=0 wait_result=1
DRIVER: arg_a=-18413, arg_b=-10669, rst_n=0 wait_result=1
DRIVER: arg_a=18946, arg_b=-5859, rst_n=0 wait_result=1
DRIVER: arg_a=-1, arg_b=-32768, rst_n=0 wait_result=1
DRIVER: arg_a=1, arg_b=-32768, rst_n=0 wait_result=1
DRIVER: arg_a=32767, arg_b=0, rst_n=0 wait_result=1
DRIVER: arg_a=32767, arg_b=-1, rst_n=0 wait_result=1
DRIVER: arg_a=5038, arg_b=1, rst_n=0 wait_result=1
DRIVER: arg_a=-1, arg_b=32767, rst_n=0 wait_result=1
DRIVER: arg_a=24635, arg_b=-32768, rst_n=0 wait_result=1
DRIVER: arg_a=-25615, arg_b=32767, rst_n=0 wait_result=1
DRIVER: arg_a=1, arg_b=-24177, rst_n=0 wait_result=1
DRIVER: arg_a=22175, arg_b=1, rst_n=0 wait_result=1
DRIVER: arg_a=32767, arg_b=32767, rst_n=0 wait_result=1
DRIVER: arg_a=-943, arg_b=32524, rst_n=0 wait_result=1
DRIVER: arg_a=0, arg_b=-4803, rst_n=0 wait_result=1
DRIVER: arg_a=-32403, arg_b=32767, rst_n=0 wait_result=1
DRIVER: arg_a=-1, arg_b=-30600, rst_n=0 wait_result=1
DRIVER: arg_a=32767, arg_b=-20694, rst_n=0 wait_result=1
DRIVER: arg_a=3214, arg_b=1, rst_n=0 wait_result=1
DRIVER: arg_a=6003, arg_b=-1, rst_n=0 wait_result=1
DRIVER: arg_a=-1, arg_b=3396, rst_n=0 wait_result=1
DRIVER: arg_a=-1, arg_b=-9382, rst_n=0 wait_result=1
DRIVER: arg_a=27866, arg_b=-7499, rst_n=0 wait_result=1
DRIVER: arg_a=32767, arg_b=1, rst_n=0 wait_result=1
DRIVER: arg_a=-32768, arg_b=-1, rst_n=0 wait_result=1
DRIVER: arg_a=1, arg_b=-32768, rst_n=0 wait_result=1
DRIVER: arg_a=-1, arg_b=-5810, rst_n=0 wait_result=1
DRIVER: arg_a=-32768, arg_b=-30152, rst_n=0 wait_result=1
DRIVER: arg_a=0, arg_b=1, rst_n=0 wait_result=1
DRIVER: arg_a=1, arg_b=32767, rst_n=0 wait_result=1
DRIVER: arg_a=-18471, arg_b=-7562, rst_n=0 wait_result=1
DRIVER: arg_a=29077, arg_b=-25852, rst_n=0 wait_result=1
DRIVER: arg_a=32767, arg_b=1, rst_n=0 wait_result=1
DRIVER: arg_a=0, arg_b=12487, rst_n=0 wait_result=1
DRIVER: arg_a=0, arg_b=1, rst_n=0 wait_result=1
DRIVER: arg_a=32767, arg_b=1, rst_n=0 wait_result=1
DRIVER: arg_a=-32768, arg_b=-22682, rst_n=0 wait_result=1
DRIVER: arg_a=-1, arg_b=-32768, rst_n=0 wait_result=1
DRIVER: arg_a=-32768, arg_b=-2534, rst_n=0 wait_result=1
DRIVER: arg_a=14230, arg_b=0, rst_n=0 wait_result=1
DRIVER: arg_a=-31875, arg_b=1, rst_n=0 wait_result=1
DRIVER: arg_a=0, arg_b=-32549, rst_n=0 wait_result=1
DRIVER: arg_a=32767, arg_b=-32768, rst_n=0 wait_result=1
DRIVER: arg_a=30881, arg_b=-27056, rst_n=0 wait_result=1
DRIVER: arg_a=-30167, arg_b=32767, rst_n=0 wait_result=1
DRIVER: arg_a=0, arg_b=-1, rst_n=0 wait_result=1
DRIVER: arg_a=1, arg_b=-32768, rst_n=0 wait_result=1
DRIVER: arg_a=0, arg_b=32767, rst_n=0 wait_result=1
DRIVER: arg_a=26342, arg_b=-19158, rst_n=0 wait_result=1
DRIVER: arg_a=-98, arg_b=0, rst_n=0 wait_result=1
DRIVER: arg_a=0, arg_b=-32768, rst_n=0 wait_result=1
DRIVER: arg_a=-1, arg_b=-8778, rst_n=0 wait_result=1
DRIVER: arg_a=1, arg_b=32767, rst_n=0 wait_result=1
DRIVER: arg_a=1, arg_b=-28538, rst_n=0 wait_result=1
DRIVER: arg_a=-32768, arg_b=-32768, rst_n=0 wait_result=1
DRIVER: arg_a=1, arg_b=1, rst_n=0 wait_result=1
DRIVER: arg_a=32767, arg_b=32767, rst_n=0 wait_result=1
DRIVER: arg_a=-1, arg_b=-1, rst_n=0 wait_result=1
DRIVER: arg_a=32767, arg_b=18549, rst_n=0 wait_result=1
DRIVER: arg_a=-1, arg_b=0, rst_n=0 wait_result=1
DRIVER: arg_a=-1, arg_b=-32768, rst_n=0 wait_result=1
DRIVER: arg_a=24395, arg_b=-32768, rst_n=0 wait_result=1
DRIVER: arg_a=-532, arg_b=0, rst_n=0 wait_result=1
DRIVER: arg_a=9281, arg_b=-1, rst_n=0 wait_result=1
DRIVER: arg_a=-1, arg_b=8795, rst_n=0 wait_result=1
DRIVER: arg_a=1, arg_b=-1, rst_n=0 wait_result=1
DRIVER: arg_a=-32768, arg_b=0, rst_n=0 wait_result=1
DRIVER: arg_a=-9055, arg_b=-1, rst_n=0 wait_result=1
DRIVER: arg_a=0, arg_b=-1631, rst_n=0 wait_result=1
DRIVER: arg_a=1, arg_b=0, rst_n=0 wait_result=1
DRIVER: arg_a=1, arg_b=-32768, rst_n=0 wait_result=1
DRIVER: arg_a=32767, arg_b=-28947, rst_n=0 wait_result=1
DRIVER: arg_a=941, arg_b=-124, rst_n=0 wait_result=1
DRIVER: arg_a=-28487, arg_b=32767, rst_n=0 wait_result=1
DRIVER: arg_a=32767, arg_b=32767, rst_n=0 wait_result=1
DRIVER: arg_a=-32768, arg_b=-32768, rst_n=0 wait_result=1
DRIVER: arg_a=-1, arg_b=1, rst_n=0 wait_result=1
DRIVER: arg_a=-3480, arg_b=3462, rst_n=0 wait_result=1
DRIVER: arg_a=0, arg_b=0, rst_n=0 wait_result=1
DRIVER: arg_a=6853, arg_b=0, rst_n=0 wait_result=1
DRIVER: arg_a=32767, arg_b=0, rst_n=0 wait_result=1
DRIVER: arg_a=-32768, arg_b=-32768, rst_n=0 wait_result=1
DRIVER: arg_a=32767, arg_b=-4541, rst_n=0 wait_result=1
DRIVER: arg_a=-13531, arg_b=32767, rst_n=0 wait_result=1
DRIVER: arg_a=-32768, arg_b=31532, rst_n=0 wait_result=1
DRIVER: arg_a=32767, arg_b=-1, rst_n=0 wait_result=1
DRIVER: arg_a=-12642, arg_b=1, rst_n=0 wait_result=1
DRIVER: arg_a=0, arg_b=0, rst_n=0 wait_result=1
DRIVER: arg_a=1, arg_b=-4083, rst_n=0 wait_result=1
DRIVER: arg_a=32767, arg_b=25853, rst_n=0 wait_result=1
DRIVER: arg_a=-26109, arg_b=-1, rst_n=0 wait_result=1
DRIVER: arg_a=32767, arg_b=1, rst_n=0 wait_result=1
DRIVER: arg_a=0, arg_b=5458, rst_n=0 wait_result=1
DRIVER: arg_a=-15278, arg_b=1, rst_n=0 wait_result=1
DRIVER: arg_a=1, arg_b=0, rst_n=0 wait_result=1
DRIVER: arg_a=-32768, arg_b=1, rst_n=0 wait_result=1
DRIVER: arg_a=1, arg_b=0, rst_n=0 wait_result=1
DRIVER: arg_a=-1, arg_b=7717, rst_n=0 wait_result=1
DRIVER: arg_a=-32768, arg_b=32767, rst_n=0 wait_result=1
DRIVER: arg_a=843, arg_b=1, rst_n=0 wait_result=1
DRIVER: arg_a=31289, arg_b=1, rst_n=0 wait_result=1
DRIVER: arg_a=1, arg_b=1, rst_n=0 wait_result=1
DRIVER: arg_a=-32768, arg_b=32767, rst_n=0 wait_result=1
DRIVER: arg_a=-1, arg_b=-1, rst_n=0 wait_result=1
DRIVER: arg_a=-1, arg_b=1, rst_n=0 wait_result=1
DRIVER: arg_a=32767, arg_b=5332, rst_n=0 wait_result=1
DRIVER: arg_a=9648, arg_b=-32768, rst_n=0 wait_result=1
DRIVER: arg_a=32767, arg_b=0, rst_n=0 wait_result=1
DRIVER: arg_a=-1, arg_b=-1, rst_n=0 wait_result=1
DRIVER: arg_a=0, arg_b=-25286, rst_n=0 wait_result=1
DRIVER: arg_a=-1, arg_b=32767, rst_n=0 wait_result=1
DRIVER: arg_a=-32768, arg_b=32767, rst_n=0 wait_result=1
DRIVER: arg_a=10647, arg_b=-1, rst_n=0 wait_result=1
DRIVER: arg_a=-1, arg_b=0, rst_n=0 wait_result=1
DRIVER: arg_a=32767, arg_b=1, rst_n=0 wait_result=1
DRIVER: arg_a=13775, arg_b=0, rst_n=0 wait_result=1
DRIVER: arg_a=32767, arg_b=25930, rst_n=0 wait_result=1
DRIVER: arg_a=-1, arg_b=1, rst_n=0 wait_result=1
DRIVER: arg_a=-4474, arg_b=0, rst_n=0 wait_result=1
DRIVER: arg_a=-2604, arg_b=-26762, rst_n=0 wait_result=1
DRIVER: arg_a=-1, arg_b=32767, rst_n=0 wait_result=1
DRIVER: arg_a=0, arg_b=-32768, rst_n=0 wait_result=1
DRIVER: arg_a=0, arg_b=-9626, rst_n=0 wait_result=1
DRIVER: arg_a=32767, arg_b=0, rst_n=0 wait_result=1
DRIVER: arg_a=14305, arg_b=16110, rst_n=0 wait_result=1
DRIVER: arg_a=-5592, arg_b=1, rst_n=0 wait_result=1
DRIVER: arg_a=32767, arg_b=5486, rst_n=0 wait_result=1
DRIVER: arg_a=-10904, arg_b=0, rst_n=0 wait_result=1
DRIVER: arg_a=18673, arg_b=-27250, rst_n=0 wait_result=1
DRIVER: arg_a=1, arg_b=32767, rst_n=0 wait_result=1
DRIVER: arg_a=-1, arg_b=-25782, rst_n=0 wait_result=1
DRIVER: arg_a=-1, arg_b=-1, rst_n=0 wait_result=1
DRIVER: arg_a=32767, arg_b=4249, rst_n=0 wait_result=1
DRIVER: arg_a=32767, arg_b=-32768, rst_n=0 wait_result=1
DRIVER: arg_a=-32768, arg_b=24409, rst_n=0 wait_result=1
DRIVER: arg_a=201, arg_b=32767, rst_n=0 wait_result=1
DRIVER: arg_a=-1, arg_b=-24720, rst_n=0 wait_result=1
DRIVER: arg_a=-32768, arg_b=-8598, rst_n=0 wait_result=1
DRIVER: arg_a=0, arg_b=-1, rst_n=0 wait_result=1
DRIVER: arg_a=0, arg_b=-12708, rst_n=0 wait_result=1
DRIVER: arg_a=32767, arg_b=0, rst_n=0 wait_result=1
DRIVER: arg_a=-27533, arg_b=1, rst_n=0 wait_result=1
DRIVER: arg_a=1, arg_b=32767, rst_n=0 wait_result=1
DRIVER: arg_a=-1, arg_b=1, rst_n=0 wait_result=1
DRIVER: arg_a=1, arg_b=32767, rst_n=0 wait_result=1
DRIVER: arg_a=-1787, arg_b=10498, rst_n=0 wait_result=1
DRIVER: arg_a=0, arg_b=-29009, rst_n=0 wait_result=1
DRIVER: arg_a=0, arg_b=-28596, rst_n=0 wait_result=1
DRIVER: arg_a=0, arg_b=-18931, rst_n=0 wait_result=1
DRIVER: arg_a=-10199, arg_b=1, rst_n=0 wait_result=1
DRIVER: arg_a=0, arg_b=0, rst_n=0 wait_result=1
DRIVER: arg_a=12021, arg_b=-13219, rst_n=0 wait_result=1
DRIVER: arg_a=-32768, arg_b=1, rst_n=0 wait_result=1
DRIVER: arg_a=1786, arg_b=25607, rst_n=0 wait_result=1
DRIVER: arg_a=-9289, arg_b=2659, rst_n=0 wait_result=1
DRIVER: arg_a=30312, arg_b=-2928, rst_n=0 wait_result=1
DRIVER: arg_a=1, arg_b=32767, rst_n=0 wait_result=1
DRIVER: arg_a=0, arg_b=28120, rst_n=0 wait_result=1
DRIVER: arg_a=9099, arg_b=1, rst_n=0 wait_result=1
DRIVER: arg_a=1, arg_b=32767, rst_n=0 wait_result=1
DRIVER: arg_a=-16141, arg_b=0, rst_n=0 wait_result=1
DRIVER: arg_a=1, arg_b=20634, rst_n=0 wait_result=1
DRIVER: arg_a=-11862, arg_b=-32768, rst_n=0 wait_result=1
DRIVER: arg_a=-32768, arg_b=1, rst_n=0 wait_result=1
DRIVER: arg_a=-1, arg_b=-1, rst_n=0 wait_result=1
DRIVER: arg_a=-32768, arg_b=32767, rst_n=0 wait_result=1
DRIVER: arg_a=-1, arg_b=-16024, rst_n=0 wait_result=1
DRIVER: arg_a=-29269, arg_b=-1, rst_n=0 wait_result=1
DRIVER: arg_a=-638, arg_b=1, rst_n=0 wait_result=1
DRIVER: arg_a=818, arg_b=32767, rst_n=0 wait_result=1
DRIVER: arg_a=-4950, arg_b=0, rst_n=0 wait_result=1
DRIVER: arg_a=1, arg_b=32767, rst_n=0 wait_result=1
DRIVER: arg_a=1, arg_b=1, rst_n=0 wait_result=1
DRIVER: arg_a=32767, arg_b=-1, rst_n=0 wait_result=1
DRIVER: arg_a=32767, arg_b=-2369, rst_n=0 wait_result=1
DRIVER: arg_a=-1, arg_b=-13182, rst_n=0 wait_result=1
DRIVER: arg_a=32767, arg_b=-29170, rst_n=0 wait_result=1
DRIVER: arg_a=17157, arg_b=1, rst_n=0 wait_result=1
DRIVER: arg_a=1, arg_b=-32768, rst_n=0 wait_result=1
DRIVER: arg_a=13827, arg_b=-8963, rst_n=0 wait_result=1
DRIVER: arg_a=0, arg_b=1, rst_n=0 wait_result=1
DRIVER: arg_a=19730, arg_b=0, rst_n=0 wait_result=1
DRIVER: arg_a=3382, arg_b=-1, rst_n=0 wait_result=1
DRIVER: arg_a=-1, arg_b=13839, rst_n=0 wait_result=1
DRIVER: arg_a=-32768, arg_b=9940, rst_n=0 wait_result=1
DRIVER: arg_a=-1, arg_b=1, rst_n=0 wait_result=1
DRIVER: arg_a=28897, arg_b=29881, rst_n=0 wait_result=1
DRIVER: arg_a=0, arg_b=-13508, rst_n=0 wait_result=1
DRIVER: arg_a=0, arg_b=-1, rst_n=0 wait_result=1
DRIVER: arg_a=1, arg_b=0, rst_n=0 wait_result=1
DRIVER: arg_a=0, arg_b=-1, rst_n=0 wait_result=1
DRIVER: arg_a=32767, arg_b=-1, rst_n=0 wait_result=1
DRIVER: arg_a=-28025, arg_b=-32768, rst_n=0 wait_result=1
DRIVER: arg_a=0, arg_b=-1, rst_n=0 wait_result=1
DRIVER: arg_a=-32768, arg_b=1, rst_n=0 wait_result=1
DRIVER: arg_a=1856, arg_b=1, rst_n=0 wait_result=1
DRIVER: arg_a=0, arg_b=-1, rst_n=0 wait_result=1
DRIVER: arg_a=-6436, arg_b=0, rst_n=0 wait_result=1
DRIVER: arg_a=23331, arg_b=-1, rst_n=0 wait_result=1
DRIVER: arg_a=-32768, arg_b=32767, rst_n=0 wait_result=1
DRIVER: arg_a=-32768, arg_b=8903, rst_n=0 wait_result=1
DRIVER: arg_a=-1, arg_b=0, rst_n=0 wait_result=1
DRIVER: arg_a=29210, arg_b=0, rst_n=0 wait_result=1
DRIVER: arg_a=0, arg_b=0, rst_n=0 wait_result=1
DRIVER: arg_a=1, arg_b=6122, rst_n=0 wait_result=1
DRIVER: arg_a=1, arg_b=-1, rst_n=0 wait_result=1
DRIVER: arg_a=0, arg_b=-3080, rst_n=0 wait_result=1
DRIVER: arg_a=32767, arg_b=-1, rst_n=0 wait_result=1
DRIVER: arg_a=21424, arg_b=-1, rst_n=0 wait_result=1
DRIVER: arg_a=0, arg_b=0, rst_n=0 wait_result=1
DRIVER: arg_a=3937, arg_b=32767, rst_n=0 wait_result=1
DRIVER: arg_a=20491, arg_b=11475, rst_n=0 wait_result=1
DRIVER: arg_a=32767, arg_b=0, rst_n=0 wait_result=1
DRIVER: arg_a=-1, arg_b=1, rst_n=0 wait_result=1
DRIVER: arg_a=-25130, arg_b=17539, rst_n=0 wait_result=1
DRIVER: arg_a=-32768, arg_b=-9403, rst_n=0 wait_result=1
DRIVER: arg_a=4213, arg_b=0, rst_n=0 wait_result=1
DRIVER: arg_a=1, arg_b=0, rst_n=0 wait_result=1
DRIVER: arg_a=1, arg_b=1, rst_n=0 wait_result=1
DRIVER: arg_a=26217, arg_b=-32768, rst_n=0 wait_result=1
DRIVER: arg_a=4010, arg_b=0, rst_n=0 wait_result=1
DRIVER: arg_a=-32768, arg_b=-1, rst_n=0 wait_result=1
DRIVER: arg_a=-1, arg_b=-1, rst_n=0 wait_result=1
DRIVER: arg_a=1, arg_b=32767, rst_n=0 wait_result=1
DRIVER: arg_a=32767, arg_b=-1, rst_n=0 wait_result=1
DRIVER: arg_a=32767, arg_b=0, rst_n=0 wait_result=1
DRIVER: arg_a=29524, arg_b=32767, rst_n=0 wait_result=1
DRIVER: arg_a=-20700, arg_b=-1, rst_n=0 wait_result=1
DRIVER: arg_a=32767, arg_b=19063, rst_n=0 wait_result=1
DRIVER: arg_a=-20817, arg_b=1, rst_n=0 wait_result=1
DRIVER: arg_a=1, arg_b=-1, rst_n=0 wait_result=1
DRIVER: arg_a=22210, arg_b=-1, rst_n=0 wait_result=1
DRIVER: arg_a=0, arg_b=27508, rst_n=0 wait_result=1
DRIVER: arg_a=-32768, arg_b=-32768, rst_n=0 wait_result=1
DRIVER: arg_a=0, arg_b=-13552, rst_n=0 wait_result=1
DRIVER: arg_a=10155, arg_b=1, rst_n=0 wait_result=1
DRIVER: arg_a=32767, arg_b=-1, rst_n=0 wait_result=1
DRIVER: arg_a=7995, arg_b=-29393, rst_n=0 wait_result=1
DRIVER: arg_a=700, arg_b=-32768, rst_n=0 wait_result=1
DRIVER: arg_a=32767, arg_b=1, rst_n=0 wait_result=1
DRIVER: arg_a=32767, arg_b=-32768, rst_n=0 wait_result=1
DRIVER: arg_a=-31051, arg_b=0, rst_n=0 wait_result=1
DRIVER: arg_a=-32768, arg_b=7598, rst_n=0 wait_result=1
DRIVER: arg_a=0, arg_b=-32768, rst_n=0 wait_result=1
DRIVER: arg_a=1, arg_b=-32768, rst_n=0 wait_result=1
DRIVER: arg_a=-9495, arg_b=-1, rst_n=0 wait_result=1
DRIVER: arg_a=24158, arg_b=1, rst_n=0 wait_result=1
DRIVER: arg_a=-1, arg_b=-32768, rst_n=0 wait_result=1
DRIVER: arg_a=-1, arg_b=32767, rst_n=0 wait_result=1
DRIVER: arg_a=-32768, arg_b=1997, rst_n=0 wait_result=1
DRIVER: arg_a=1, arg_b=1, rst_n=0 wait_result=1
DRIVER: arg_a=-1, arg_b=1, rst_n=0 wait_result=1
DRIVER: arg_a=-29348, arg_b=-14100, rst_n=0 wait_result=1
DRIVER: arg_a=-31368, arg_b=-1, rst_n=0 wait_result=1
DRIVER: arg_a=-1, arg_b=-1, rst_n=0 wait_result=1
DRIVER: arg_a=-1, arg_b=14921, rst_n=0 wait_result=1
DRIVER: arg_a=-32768, arg_b=0, rst_n=0 wait_result=1
DRIVER: arg_a=32767, arg_b=-11075, rst_n=0 wait_result=1
DRIVER: arg_a=9589, arg_b=-27243, rst_n=0 wait_result=1
DRIVER: arg_a=1, arg_b=19657, rst_n=0 wait_result=1
DRIVER: arg_a=1, arg_b=-32768, rst_n=0 wait_result=1
DRIVER: arg_a=-7411, arg_b=0, rst_n=0 wait_result=1
DRIVER: arg_a=32767, arg_b=1, rst_n=0 wait_result=1
DRIVER: arg_a=32767, arg_b=15050, rst_n=0 wait_result=1
DRIVER: arg_a=32767, arg_b=1, rst_n=0 wait_result=1
DRIVER: arg_a=32767, arg_b=0, rst_n=0 wait_result=1
DRIVER: arg_a=1, arg_b=32767, rst_n=0 wait_result=1
DRIVER: arg_a=32767, arg_b=-18543, rst_n=0 wait_result=1
DRIVER: arg_a=-32768, arg_b=25422, rst_n=0 wait_result=1
DRIVER: arg_a=27485, arg_b=1, rst_n=0 wait_result=1
DRIVER: arg_a=1, arg_b=-1, rst_n=0 wait_result=1
DRIVER: arg_a=32767, arg_b=4749, rst_n=0 wait_result=1
DRIVER: arg_a=-32768, arg_b=0, rst_n=0 wait_result=1
DRIVER: arg_a=0, arg_b=0, rst_n=0 wait_result=1
DRIVER: arg_a=32767, arg_b=-1, rst_n=0 wait_result=1
DRIVER: arg_a=8536, arg_b=12183, rst_n=0 wait_result=1
DRIVER: arg_a=32767, arg_b=1, rst_n=0 wait_result=1
DRIVER: arg_a=4941, arg_b=-1, rst_n=0 wait_result=1
DRIVER: arg_a=26041, arg_b=0, rst_n=0 wait_result=1
DRIVER: arg_a=32767, arg_b=32767, rst_n=0 wait_result=1
DRIVER: arg_a=-4003, arg_b=-13517, rst_n=0 wait_result=1
DRIVER: arg_a=21146, arg_b=1, rst_n=0 wait_result=1
DRIVER: arg_a=-1, arg_b=-32768, rst_n=0 wait_result=1
DRIVER: arg_a=0, arg_b=32767, rst_n=0 wait_result=1
DRIVER: arg_a=32767, arg_b=26668, rst_n=0 wait_result=1
DRIVER: arg_a=-32768, arg_b=0, rst_n=0 wait_result=1
DRIVER: arg_a=0, arg_b=1, rst_n=0 wait_result=1
DRIVER: arg_a=20433, arg_b=0, rst_n=0 wait_result=1
DRIVER: arg_a=0, arg_b=0, rst_n=0 wait_result=1
DRIVER: arg_a=32767, arg_b=32767, rst_n=0 wait_result=1
DRIVER: arg_a=26547, arg_b=-14720, rst_n=0 wait_result=1
DRIVER: arg_a=0, arg_b=32767, rst_n=0 wait_result=1
DRIVER: arg_a=-637, arg_b=-28416, rst_n=0 wait_result=1
DRIVER: arg_a=-8207, arg_b=19870, rst_n=0 wait_result=1
DRIVER: arg_a=32767, arg_b=-32768, rst_n=0 wait_result=1
DRIVER: arg_a=32767, arg_b=32767, rst_n=0 wait_result=1
DRIVER: arg_a=1, arg_b=0, rst_n=0 wait_result=1
DRIVER: arg_a=23171, arg_b=-9260, rst_n=0 wait_result=1
DRIVER: arg_a=-32768, arg_b=1, rst_n=0 wait_result=1
DRIVER: arg_a=-20927, arg_b=14358, rst_n=0 wait_result=1
DRIVER: arg_a=-32768, arg_b=-1, rst_n=0 wait_result=1
DRIVER: arg_a=-1, arg_b=0, rst_n=0 wait_result=1
DRIVER: arg_a=-1, arg_b=-30351, rst_n=0 wait_result=1
DRIVER: arg_a=22197, arg_b=0, rst_n=0 wait_result=1
DRIVER: arg_a=-3408, arg_b=1, rst_n=0 wait_result=1
DRIVER: arg_a=-1186, arg_b=0, rst_n=0 wait_result=1
DRIVER: arg_a=-32768, arg_b=14793, rst_n=0 wait_result=1
DRIVER: arg_a=1, arg_b=14644, rst_n=0 wait_result=1
DRIVER: arg_a=28977, arg_b=10164, rst_n=0 wait_result=1
DRIVER: arg_a=1, arg_b=1, rst_n=0 wait_result=1
DRIVER: arg_a=-32768, arg_b=-1, rst_n=0 wait_result=1
DRIVER: arg_a=-1, arg_b=-1, rst_n=0 wait_result=1
DRIVER: arg_a=9433, arg_b=-32768, rst_n=0 wait_result=1
DRIVER: arg_a=13853, arg_b=-1, rst_n=0 wait_result=1
DRIVER: arg_a=-6135, arg_b=1, rst_n=0 wait_result=1
DRIVER: arg_a=0, arg_b=20901, rst_n=0 wait_result=1
DRIVER: arg_a=-7345, arg_b=1, rst_n=0 wait_result=1
DRIVER: arg_a=25414, arg_b=-15970, rst_n=0 wait_result=1
DRIVER: arg_a=1, arg_b=1, rst_n=0 wait_result=1
DRIVER: arg_a=4944, arg_b=-9082, rst_n=0 wait_result=1
DRIVER: arg_a=0, arg_b=22432, rst_n=0 wait_result=1
DRIVER: arg_a=32767, arg_b=0, rst_n=0 wait_result=1
DRIVER: arg_a=-9032, arg_b=-6442, rst_n=0 wait_result=1
DRIVER: arg_a=32767, arg_b=-2763, rst_n=0 wait_result=1
DRIVER: arg_a=-31499, arg_b=-32768, rst_n=0 wait_result=1
DRIVER: arg_a=24615, arg_b=1, rst_n=0 wait_result=1
DRIVER: arg_a=-27736, arg_b=32767, rst_n=0 wait_result=1
DRIVER: arg_a=26739, arg_b=0, rst_n=0 wait_result=1
DRIVER: arg_a=1, arg_b=-3759, rst_n=0 wait_result=1
DRIVER: arg_a=1, arg_b=-7500, rst_n=0 wait_result=1
DRIVER: arg_a=-3751, arg_b=1, rst_n=0 wait_result=1
DRIVER: arg_a=18624, arg_b=-1, rst_n=0 wait_result=1
DRIVER: arg_a=-1, arg_b=32767, rst_n=0 wait_result=1
DRIVER: arg_a=32767, arg_b=-1, rst_n=0 wait_result=1
DRIVER: arg_a=1, arg_b=0, rst_n=0 wait_result=1
DRIVER: arg_a=25070, arg_b=1, rst_n=0 wait_result=1
DRIVER: arg_a=0, arg_b=-32768, rst_n=0 wait_result=1
DRIVER: arg_a=-17034, arg_b=-1, rst_n=0 wait_result=1
DRIVER: arg_a=1, arg_b=0, rst_n=0 wait_result=1
DRIVER: arg_a=32767, arg_b=11410, rst_n=0 wait_result=1
DRIVER: arg_a=32767, arg_b=-13347, rst_n=0 wait_result=1
DRIVER: arg_a=-1, arg_b=-1, rst_n=0 wait_result=1
DRIVER: arg_a=-32768, arg_b=-1, rst_n=0 wait_result=1
DRIVER: arg_a=0, arg_b=32767, rst_n=0 wait_result=1
DRIVER: arg_a=3744, arg_b=-30859, rst_n=0 wait_result=1
DRIVER: arg_a=12583, arg_b=1, rst_n=0 wait_result=1
DRIVER: arg_a=-3489, arg_b=32767, rst_n=0 wait_result=1
DRIVER: arg_a=-32768, arg_b=-1, rst_n=0 wait_result=1
DRIVER: arg_a=6995, arg_b=-20755, rst_n=0 wait_result=1
DRIVER: arg_a=1, arg_b=32767, rst_n=0 wait_result=1
DRIVER: arg_a=0, arg_b=1, rst_n=0 wait_result=1
DRIVER: arg_a=-32768, arg_b=-4361, rst_n=0 wait_result=1
DRIVER: arg_a=16544, arg_b=-32768, rst_n=0 wait_result=1
DRIVER: arg_a=-1, arg_b=0, rst_n=0 wait_result=1
DRIVER: arg_a=0, arg_b=32767, rst_n=0 wait_result=1
DRIVER: arg_a=24023, arg_b=-1, rst_n=0 wait_result=1
DRIVER: arg_a=-32768, arg_b=-32768, rst_n=0 wait_result=1
DRIVER: arg_a=0, arg_b=-8847, rst_n=0 wait_result=1
DRIVER: arg_a=-1, arg_b=1, rst_n=0 wait_result=1
DRIVER: arg_a=3439, arg_b=1, rst_n=0 wait_result=1
DRIVER: arg_a=-1, arg_b=0, rst_n=0 wait_result=1
DRIVER: arg_a=32767, arg_b=0, rst_n=0 wait_result=1
DRIVER: arg_a=0, arg_b=-1, rst_n=0 wait_result=1
DRIVER: arg_a=-32768, arg_b=6256, rst_n=0 wait_result=1
