lab06/run/xrun_gui.log
TOOL:	xrun	21.03-s009: Started on Nov 30, 2023 at 01:12:14 CET
xrun
	-F ../tb/tb.f
		mult_pkg.sv
		mult_bfm.sv
		-F ../tb/../../common/vdic_dut_2023.f
			vdic_dut_2023.svp
		top.sv
		+incdir+tb_classes
		+incdir+.
		+nowarn+DSEMEL
		+nowarnBADPRF
		-uvm
		-uvmhome /eda/cadence/2021-22/RHELx86/XCELIUM_21.03.009/tools/methodology/UVM/CDNS-1.2/sv
		+UVM_NO_RELNOTES
		+UVM_VERBOSITY=MEDIUM
		-linedebug
		-fsmdebug
		-uvmlinedebug
	-v93
	+nowarnDSEM2009
	+nowarnDSEMEL
	+nowarnCGDEFN
	+nowarnCOVUTA
	+nowarnBADPRF
	+nowarnXCLGNOPTM
	+nowarnRNDXCELON
	+nowarnSAWSTP
	-xmlibdirname INCA_libs_gui
	+access+r
	+gui
	+overwrite
	-nocopyright
	-coverage all
	-covoverwrite
	-covfile xrun_covfile.txt
	+UVM_TESTNAME=random_test
	-l xrun_gui.log

   User defined plus("+") options:
	+UVM_NO_RELNOTES
	+UVM_VERBOSITY=MEDIUM

SVSEED default: 1

-------------------------------------
Relinquished control to SimVision...
xcelium> 
xcelium> source /eda/cadence/2021-22/RHELx86/XCELIUM_21.03.009/tools/xcelium/files/xmsimrc
xcelium> source /eda/cadence/2021-22/RHELx86/XCELIUM_21.03.009/tools/methodology/UVM/CDNS-1.2/sv/files/tcl/uvm_sim.tcl
xcelium> database -open waves -into waves.shm -default
Created default SHM database waves
xcelium> probe -create -shm top.DUT.ack top.DUT.arg_a top.DUT.arg_a_parity top.DUT.arg_b top.DUT.arg_b_parity top.DUT.arg_parity_error top.DUT.clk top.DUT.req top.DUT.result top.DUT.result_parity top.DUT.result_rdy top.DUT.rst_n top.bfm.ack top.bfm.arg_a top.bfm.arg_a_parity top.bfm.arg_b top.bfm.arg_b_parity top.bfm.arg_parity_error top.bfm.clk top.bfm.command_monitor_h top.bfm.op top.bfm.req top.bfm.result top.bfm.result_monitor_h top.bfm.result_parity top.bfm.result_rdy top.bfm.rst_n -depth 2 -all
Created probe 1
xcelium> run
UVM_INFO @ 0: reporter [RNTST] Running test random_test...
[1;30m[103m*** Created tpgen type: random_tpgen ***[0m

----------------------------------------------------------------
Name                     Type                        Size  Value
----------------------------------------------------------------
uvm_test_top             random_test                 -     @1936
  env_h                  env                         -     @2013
    command_f            uvm_tlm_fifo #(T)           -     @2044
      get_ap             uvm_analysis_port           -     @2278
      get_peek_export    uvm_get_peek_imp            -     @2178
      put_ap             uvm_analysis_port           -     @2228
      put_export         uvm_put_imp                 -     @2126
    command_monitor_h    command_monitor             -     @2508
      ap                 uvm_analysis_port           -     @2598
    coverage_h           coverage                    -     @2342
      analysis_imp       uvm_analysis_imp            -     @2392
    drive_h              driver                      -     @2311
      command_port       uvm_get_port                -     @2654
    result_monitor_h     result_monitor              -     @2539
      ap                 uvm_analysis_port           -     @2708
    scoreboard_h         scoreboard                  -     @2425
      analysis_imp       uvm_analysis_imp            -     @2475
      cmd_f              uvm_tlm_analysis_fifo #(T)  -     @2739
        analysis_export  uvm_analysis_imp            -     @2988
        get_ap           uvm_analysis_port           -     @2937
        get_peek_export  uvm_get_peek_imp            -     @2839
        put_ap           uvm_analysis_port           -     @2888
        put_export       uvm_put_imp                 -     @2790
    tpgen_h              random_tpgen                -     @2045
      command_port       uvm_put_port                -     @3046
----------------------------------------------------------------
DRIVER: arg_a=0, arg_b=0, op=0 wait_result=0, parity_a=0, parity_b=0
xmsim: *E,ERRSEV (../tb/tb_classes/scoreboard.svh,210): (time 90 NS).
mult_pkg::scoreboard.write.CHK_RESULT
90000 Test FAILED for A=32767, B=32767, expected: result=0  result_parity=1 arg_parity_error=0,
DRIVER: arg_a=32767, arg_b=32767, op=4 wait_result=1, parity_a=0, parity_b=0
xmsim: *E,ERRSEV (../tb/tb_classes/scoreboard.svh,210): (time 130 NS).
mult_pkg::scoreboard.write.CHK_RESULT
130000 Test FAILED for A=-26227, B=21010, expected: result=0  result_parity=1 arg_parity_error=0,
DRIVER: arg_a=-26227, arg_b=21010, op=3 wait_result=1, parity_a=0, parity_b=0
xmsim: *E,ERRSEV (../tb/tb_classes/scoreboard.svh,210): (time 170 NS).
mult_pkg::scoreboard.write.CHK_RESULT
170000 Test FAILED for A=-3722, B=22509, expected: result=-83778498  result_parity=0 arg_parity_error=0,
DRIVER: arg_a=-3722, arg_b=22509, op=1 wait_result=1, parity_a=0, parity_b=0
xmsim: *E,ERRSEV (../tb/tb_classes/scoreboard.svh,210): (time 290 NS).
mult_pkg::scoreboard.write.CHK_RESULT
290000 Test FAILED for A=32767, B=-31547, expected: result=0  result_parity=0 arg_parity_error=0,
DRIVER: arg_a=32767, arg_b=-31547, op=4 wait_result=1, parity_a=0, parity_b=1
xmsim: *E,ERRSEV (../tb/tb_classes/scoreboard.svh,210): (time 330 NS).
mult_pkg::scoreboard.write.CHK_RESULT
330000 Test FAILED for A=29303, B=-32768, expected: result=0  result_parity=1 arg_parity_error=0,
DRIVER: arg_a=29303, arg_b=-32768, op=2 wait_result=1, parity_a=0, parity_b=1
DRIVER: arg_a=-32768, arg_b=31464, op=0 wait_result=1, parity_a=1, parity_b=1
DRIVER: arg_a=1, arg_b=22573, op=0 wait_result=1, parity_a=1, parity_b=1
DRIVER: arg_a=-1, arg_b=-32768, op=0 wait_result=1, parity_a=1, parity_b=1
DRIVER: arg_a=0, arg_b=-32768, op=0 wait_result=1, parity_a=1, parity_b=1
DRIVER: arg_a=-18413, arg_b=-10669, op=0 wait_result=1, parity_a=1, parity_b=1
xmsim: *E,ERRSEV (../tb/tb_classes/scoreboard.svh,210): (time 750 NS).
mult_pkg::scoreboard.write.CHK_RESULT
750000 Test FAILED for A=18946, B=-5859, expected: result=0  result_parity=1 arg_parity_error=0,
DRIVER: arg_a=18946, arg_b=-5859, op=3 wait_result=1, parity_a=1, parity_b=1
DRIVER: arg_a=-1, arg_b=-32768, op=0 wait_result=1, parity_a=0, parity_b=0
xmsim: *E,ERRSEV (../tb/tb_classes/scoreboard.svh,210): (time 830 NS).
mult_pkg::scoreboard.write.CHK_RESULT
830000 Test FAILED for A=1, B=-32768, expected: result=0  result_parity=1 arg_parity_error=0,
DRIVER: arg_a=1, arg_b=-32768, op=2 wait_result=1, parity_a=0, parity_b=0
xmsim: *E,ERRSEV (../tb/tb_classes/scoreboard.svh,210): (time 870 NS).
mult_pkg::scoreboard.write.CHK_RESULT
870000 Test FAILED for A=32767, B=0, expected: result=0  result_parity=0 arg_parity_error=0,
DRIVER: arg_a=32767, arg_b=0, op=2 wait_result=1, parity_a=0, parity_b=1
DRIVER: arg_a=32767, arg_b=-1, op=0 wait_result=1, parity_a=0, parity_b=0
DRIVER: arg_a=5038, arg_b=1, op=0 wait_result=1, parity_a=0, parity_b=0
xmsim: *E,ERRSEV (../tb/tb_classes/scoreboard.svh,210): (time 990 NS).
mult_pkg::scoreboard.write.CHK_RESULT
990000 Test FAILED for A=-1, B=32767, expected: result=0  result_parity=0 arg_parity_error=0,
DRIVER: arg_a=-1, arg_b=32767, op=2 wait_result=1, parity_a=0, parity_b=0
DRIVER: arg_a=24635, arg_b=-32768, op=0 wait_result=1, parity_a=1, parity_b=1
DRIVER: arg_a=-25615, arg_b=32767, op=0 wait_result=1, parity_a=1, parity_b=1
xmsim: *E,ERRSEV (../tb/tb_classes/scoreboard.svh,210): (time 1170 NS).
mult_pkg::scoreboard.write.CHK_RESULT
1170000 Test FAILED for A=1, B=-24177, expected: result=0  result_parity=0 arg_parity_error=0,
DRIVER: arg_a=1, arg_b=-24177, op=2 wait_result=1, parity_a=1, parity_b=1
DRIVER: arg_a=22175, arg_b=1, op=0 wait_result=1, parity_a=0, parity_b=0
xmsim: *E,ERRSEV (../tb/tb_classes/scoreboard.svh,210): (time 1250 NS).
mult_pkg::scoreboard.write.CHK_RESULT
1250000 Test FAILED for A=32767, B=32767, expected: result=0  result_parity=1 arg_parity_error=0,
DRIVER: arg_a=32767, arg_b=32767, op=3 wait_result=1, parity_a=0, parity_b=0
DRIVER: arg_a=-943, arg_b=32524, op=0 wait_result=1, parity_a=1, parity_b=0
xmsim: *E,ERRSEV (../tb/tb_classes/scoreboard.svh,210): (time 1330 NS).
mult_pkg::scoreboard.write.CHK_RESULT
1330000 Test FAILED for A=0, B=-4803, expected: result=0  result_parity=0 arg_parity_error=0,
DRIVER: arg_a=0, arg_b=-4803, op=2 wait_result=1, parity_a=1, parity_b=0
xmsim: *E,ERRSEV (../tb/tb_classes/scoreboard.svh,210): (time 1370 NS).
mult_pkg::scoreboard.write.CHK_RESULT
1370000 Test FAILED for A=-32403, B=32767, expected: result=0  result_parity=1 arg_parity_error=0,
DRIVER: arg_a=-32403, arg_b=32767, op=2 wait_result=1, parity_a=1, parity_b=1
DRIVER: arg_a=-1, arg_b=-30600, op=0 wait_result=1, parity_a=0, parity_b=1
xmsim: *E,ERRSEV (../tb/tb_classes/scoreboard.svh,210): (time 1450 NS).
mult_pkg::scoreboard.write.CHK_RESULT
1450000 Test FAILED for A=32767, B=-20694, expected: result=0  result_parity=1 arg_parity_error=0,
DRIVER: arg_a=32767, arg_b=-20694, op=3 wait_result=1, parity_a=0, parity_b=1
DRIVER: arg_a=3214, arg_b=1, op=0 wait_result=1, parity_a=1, parity_b=0
xmsim: *E,ERRSEV (../tb/tb_classes/scoreboard.svh,210): (time 1530 NS).
mult_pkg::scoreboard.write.CHK_RESULT
1530000 Test FAILED for A=6003, B=-1, expected: result=0  result_parity=0 arg_parity_error=0,
DRIVER: arg_a=6003, arg_b=-1, op=2 wait_result=1, parity_a=1, parity_b=0
DRIVER: arg_a=-1, arg_b=3396, op=0 wait_result=1, parity_a=0, parity_b=0
DRIVER: arg_a=-1, arg_b=-9382, op=0 wait_result=1, parity_a=0, parity_b=0
xmsim: *E,ERRSEV (../tb/tb_classes/scoreboard.svh,210): (time 1690 NS).
mult_pkg::scoreboard.write.CHK_RESULT
1690000 Test FAILED for A=27866, B=-7499, expected: result=-208967134  result_parity=0 arg_parity_error=0,
DRIVER: arg_a=27866, arg_b=-7499, op=1 wait_result=1, parity_a=0, parity_b=0
DRIVER: arg_a=32767, arg_b=1, op=0 wait_result=1, parity_a=1, parity_b=1
DRIVER: arg_a=-32768, arg_b=-1, op=0 wait_result=1, parity_a=1, parity_b=1
DRIVER: arg_a=1, arg_b=-32768, op=0 wait_result=1, parity_a=1, parity_b=1
DRIVER: arg_a=-1, arg_b=-5810, op=0 wait_result=1, parity_a=1, parity_b=1
DRIVER: arg_a=-32768, arg_b=-30152, op=0 wait_result=1, parity_a=1, parity_b=1
xmsim: *E,ERRSEV (../tb/tb_classes/scoreboard.svh,210): (time 2090 NS).
mult_pkg::scoreboard.write.CHK_RESULT
2090000 Test FAILED for A=0, B=1, expected: result=0  result_parity=0 arg_parity_error=0,
DRIVER: arg_a=0, arg_b=1, op=1 wait_result=1, parity_a=1, parity_b=1
xmsim: *E,ERRSEV (../tb/tb_classes/scoreboard.svh,210): (time 2150 NS).
mult_pkg::scoreboard.write.CHK_RESULT
2150000 Test FAILED for A=1, B=32767, expected: result=0  result_parity=1 arg_parity_error=0,
DRIVER: arg_a=1, arg_b=32767, op=3 wait_result=1, parity_a=0, parity_b=1
xmsim: *E,ERRSEV (../tb/tb_classes/scoreboard.svh,210): (time 2190 NS).
mult_pkg::scoreboard.write.CHK_RESULT
2190000 Test FAILED for A=-18471, B=-7562, expected: result=0  result_parity=0 arg_parity_error=0,
DRIVER: arg_a=-18471, arg_b=-7562, op=3 wait_result=1, parity_a=1, parity_b=0
xmsim: *E,ERRSEV (../tb/tb_classes/scoreboard.svh,210): (time 2230 NS).
mult_pkg::scoreboard.write.CHK_RESULT
2230000 Test FAILED for A=29077, B=-25852, expected: result=0  result_parity=0 arg_parity_error=0,
DRIVER: arg_a=29077, arg_b=-25852, op=2 wait_result=1, parity_a=1, parity_b=0
DRIVER: arg_a=32767, arg_b=1, op=0 wait_result=1, parity_a=1, parity_b=0
DRIVER: arg_a=0, arg_b=12487, op=0 wait_result=1, parity_a=1, parity_b=0
DRIVER: arg_a=0, arg_b=1, op=0 wait_result=1, parity_a=1, parity_b=0
DRIVER: arg_a=32767, arg_b=1, op=0 wait_result=1, parity_a=1, parity_b=0
DRIVER: arg_a=-32768, arg_b=-22682, op=0 wait_result=1, parity_a=1, parity_b=0
DRIVER: arg_a=-1, arg_b=-32768, op=0 wait_result=1, parity_a=1, parity_b=0
DRIVER: arg_a=-32768, arg_b=-2534, op=0 wait_result=1, parity_a=1, parity_b=0
xmsim: *E,ERRSEV (../tb/tb_classes/scoreboard.svh,210): (time 2550 NS).
mult_pkg::scoreboard.write.CHK_RESULT
2550000 Test FAILED for A=14230, B=0, expected: result=0  result_parity=0 arg_parity_error=0,
DRIVER: arg_a=14230, arg_b=0, op=1 wait_result=1, parity_a=1, parity_b=0
DRIVER: arg_a=-31875, arg_b=1, op=0 wait_result=1, parity_a=1, parity_b=0
DRIVER: arg_a=0, arg_b=-32549, op=0 wait_result=1, parity_a=1, parity_b=0
DRIVER: arg_a=32767, arg_b=-32768, op=0 wait_result=1, parity_a=1, parity_b=0
xmsim: *E,ERRSEV (../tb/tb_classes/scoreboard.svh,210): (time 2730 NS).
mult_pkg::scoreboard.write.CHK_RESULT
2730000 Test FAILED for A=30881, B=-27056, expected: result=-835516336  result_parity=1 arg_parity_error=0,
DRIVER: arg_a=30881, arg_b=-27056, op=1 wait_result=1, parity_a=1, parity_b=0
DRIVER: arg_a=-30167, arg_b=32767, op=0 wait_result=1, parity_a=1, parity_b=0
DRIVER: arg_a=0, arg_b=-1, op=0 wait_result=1, parity_a=1, parity_b=0
xmsim: *E,ERRSEV (../tb/tb_classes/scoreboard.svh,210): (time 2930 NS).
mult_pkg::scoreboard.write.CHK_RESULT
2930000 Test FAILED for A=1, B=-32768, expected: result=0  result_parity=1 arg_parity_error=0,
DRIVER: arg_a=1, arg_b=-32768, op=3 wait_result=1, parity_a=1, parity_b=0
DRIVER: arg_a=0, arg_b=32767, op=0 wait_result=1, parity_a=1, parity_b=0
xmsim: *E,ERRSEV (../tb/tb_classes/scoreboard.svh,210): (time 3010 NS).
mult_pkg::scoreboard.write.CHK_RESULT
3010000 Test FAILED for A=26342, B=-19158, expected: result=-504660036  result_parity=0 arg_parity_error=0,
DRIVER: arg_a=26342, arg_b=-19158, op=1 wait_result=1, parity_a=1, parity_b=0
xmsim: *E,ERRSEV (../tb/tb_classes/scoreboard.svh,210): (time 3130 NS).
mult_pkg::scoreboard.write.CHK_RESULT
3130000 Test FAILED for A=-98, B=0, expected: result=0  result_parity=0 arg_parity_error=0,
DRIVER: arg_a=-98, arg_b=0, op=2 wait_result=1, parity_a=1, parity_b=0
xmsim: *E,ERRSEV (../tb/tb_classes/scoreboard.svh,210): (time 3170 NS).
mult_pkg::scoreboard.write.CHK_RESULT
3170000 Test FAILED for A=0, B=-32768, expected: result=0  result_parity=0 arg_parity_error=0,
DRIVER: arg_a=0, arg_b=-32768, op=1 wait_result=1, parity_a=0, parity_b=0
xmsim: *E,ERRSEV (../tb/tb_classes/scoreboard.svh,210): (time 3230 NS).
mult_pkg::scoreboard.write.CHK_RESULT
3230000 Test FAILED for A=-1, B=-8778, expected: result=0  result_parity=1 arg_parity_error=0,
DRIVER: arg_a=-1, arg_b=-8778, op=3 wait_result=1, parity_a=0, parity_b=1
xmsim: *E,ERRSEV (../tb/tb_classes/scoreboard.svh,210): (time 3270 NS).
mult_pkg::scoreboard.write.CHK_RESULT
3270000 Test FAILED for A=1, B=32767, expected: result=0  result_parity=1 arg_parity_error=0,
DRIVER: arg_a=1, arg_b=32767, op=2 wait_result=1, parity_a=0, parity_b=0
xmsim: *E,ERRSEV (../tb/tb_classes/scoreboard.svh,210): (time 3310 NS).
mult_pkg::scoreboard.write.CHK_RESULT
3310000 Test FAILED for A=1, B=-28538, expected: result=0  result_parity=1 arg_parity_error=0,
DRIVER: arg_a=1, arg_b=-28538, op=2 wait_result=1, parity_a=0, parity_b=1
xmsim: *E,ERRSEV (../tb/tb_classes/scoreboard.svh,210): (time 3350 NS).
mult_pkg::scoreboard.write.CHK_RESULT
3350000 Test FAILED for A=-32768, B=-32768, expected: result=0  result_parity=0 arg_parity_error=0,
DRIVER: arg_a=-32768, arg_b=-32768, op=2 wait_result=1, parity_a=0, parity_b=1
DRIVER: arg_a=1, arg_b=1, op=0 wait_result=1, parity_a=0, parity_b=1
xmsim: *E,ERRSEV (../tb/tb_classes/scoreboard.svh,210): (time 3430 NS).
mult_pkg::scoreboard.write.CHK_RESULT
3430000 Test FAILED for A=32767, B=32767, expected: result=0  result_parity=1 arg_parity_error=0,
DRIVER: arg_a=32767, arg_b=32767, op=2 wait_result=1, parity_a=0, parity_b=1
DRIVER: arg_a=-1, arg_b=-1, op=0 wait_result=1, parity_a=0, parity_b=1
DRIVER: arg_a=32767, arg_b=18549, op=0 wait_result=1, parity_a=0, parity_b=1
DRIVER: arg_a=-1, arg_b=0, op=0 wait_result=1, parity_a=0, parity_b=1
DRIVER: arg_a=-1, arg_b=-32768, op=0 wait_result=1, parity_a=0, parity_b=1
DRIVER: arg_a=24395, arg_b=-32768, op=0 wait_result=1, parity_a=0, parity_b=1
DRIVER: arg_a=-532, arg_b=0, op=0 wait_result=1, parity_a=0, parity_b=1
xmsim: *E,ERRSEV (../tb/tb_classes/scoreboard.svh,210): (time 3810 NS).
mult_pkg::scoreboard.write.CHK_RESULT
3810000 Test FAILED for A=9281, B=-1, expected: result=-9281  result_parity=1 arg_parity_error=0,
DRIVER: arg_a=9281, arg_b=-1, op=1 wait_result=1, parity_a=0, parity_b=1
DRIVER: arg_a=-1, arg_b=8795, op=0 wait_result=1, parity_a=0, parity_b=0
xmsim: *E,ERRSEV (../tb/tb_classes/scoreboard.svh,210): (time 3930 NS).
mult_pkg::scoreboard.write.CHK_RESULT
3930000 Test FAILED for A=1, B=-1, expected: result=0  result_parity=0 arg_parity_error=0,
DRIVER: arg_a=1, arg_b=-1, op=2 wait_result=1, parity_a=0, parity_b=0
DRIVER: arg_a=-32768, arg_b=0, op=0 wait_result=1, parity_a=0, parity_b=0
xmsim: *E,ERRSEV (../tb/tb_classes/scoreboard.svh,210): (time 4010 NS).
mult_pkg::scoreboard.write.CHK_RESULT
4010000 Test FAILED for A=-9055, B=-1, expected: result=9055  result_parity=1 arg_parity_error=0,
DRIVER: arg_a=-9055, arg_b=-1, op=1 wait_result=1, parity_a=0, parity_b=0
xmsim: *E,ERRSEV (../tb/tb_classes/scoreboard.svh,210): (time 4090 NS).
mult_pkg::scoreboard.write.CHK_RESULT
4090000 Test FAILED for A=0, B=-1631, expected: result=0  result_parity=0 arg_parity_error=0,
DRIVER: arg_a=0, arg_b=-1631, op=1 wait_result=1, parity_a=0, parity_b=0
DRIVER: arg_a=1, arg_b=0, op=0 wait_result=1, parity_a=0, parity_b=1
DRIVER: arg_a=1, arg_b=-32768, op=0 wait_result=1, parity_a=0, parity_b=1
DRIVER: arg_a=32767, arg_b=-28947, op=0 wait_result=1, parity_a=0, parity_b=1
xmsim: *E,ERRSEV (../tb/tb_classes/scoreboard.svh,210): (time 4270 NS).
mult_pkg::scoreboard.write.CHK_RESULT
4270000 Test FAILED for A=941, B=-124, expected: result=0  result_parity=0 arg_parity_error=0,
DRIVER: arg_a=941, arg_b=-124, op=3 wait_result=1, parity_a=0, parity_b=1
DRIVER: arg_a=-28487, arg_b=32767, op=0 wait_result=1, parity_a=1, parity_b=1
xmsim: *E,ERRSEV (../tb/tb_classes/scoreboard.svh,210): (time 4430 NS).
mult_pkg::scoreboard.write.CHK_RESULT
4430000 Test FAILED for A=32767, B=32767, expected: result=0  result_parity=1 arg_parity_error=0,
DRIVER: arg_a=32767, arg_b=32767, op=3 wait_result=1, parity_a=1, parity_b=1
xmsim: *E,ERRSEV (../tb/tb_classes/scoreboard.svh,210): (time 4470 NS).
mult_pkg::scoreboard.write.CHK_RESULT
4470000 Test FAILED for A=-32768, B=-32768, expected: result=1073741824  result_parity=0 arg_parity_error=0,
DRIVER: arg_a=-32768, arg_b=-32768, op=1 wait_result=1, parity_a=1, parity_b=0
DRIVER: arg_a=-1, arg_b=1, op=0 wait_result=1, parity_a=1, parity_b=1
xmsim: *E,ERRSEV (../tb/tb_classes/scoreboard.svh,210): (time 4590 NS).
mult_pkg::scoreboard.write.CHK_RESULT
4590000 Test FAILED for A=-3480, B=3462, expected: result=0  result_parity=0 arg_parity_error=0,
DRIVER: arg_a=-3480, arg_b=3462, op=2 wait_result=1, parity_a=1, parity_b=1
DRIVER: arg_a=0, arg_b=0, op=0 wait_result=1, parity_a=1, parity_b=0
DRIVER: arg_a=6853, arg_b=0, op=0 wait_result=1, parity_a=1, parity_b=0
DRIVER: arg_a=32767, arg_b=0, op=4 wait_result=1, parity_a=1, parity_b=0
xmsim: *E,ERRSEV (../tb/tb_classes/scoreboard.svh,210): (time 4770 NS).
mult_pkg::scoreboard.write.CHK_RESULT
4770000 Test FAILED for A=-32768, B=-32768, expected: result=0  result_parity=0 arg_parity_error=0,
DRIVER: arg_a=-32768, arg_b=-32768, op=4 wait_result=1, parity_a=0, parity_b=1
DRIVER: arg_a=32767, arg_b=-4541, op=0 wait_result=1, parity_a=0, parity_b=0
xmsim: *E,ERRSEV (../tb/tb_classes/scoreboard.svh,210): (time 4850 NS).
mult_pkg::scoreboard.write.CHK_RESULT
4850000 Test FAILED for A=-13531, B=32767, expected: result=-443370277  result_parity=0 arg_parity_error=0,
DRIVER: arg_a=-13531, arg_b=32767, op=1 wait_result=1, parity_a=0, parity_b=0
DRIVER: arg_a=-32768, arg_b=31532, op=0 wait_result=1, parity_a=0, parity_b=1
xmsim: *E,ERRSEV (../tb/tb_classes/scoreboard.svh,210): (time 5010 NS).
mult_pkg::scoreboard.write.CHK_RESULT
5010000 Test FAILED for A=32767, B=-1, expected: result=0  result_parity=0 arg_parity_error=0,
DRIVER: arg_a=32767, arg_b=-1, op=4 wait_result=1, parity_a=0, parity_b=1
DRIVER: arg_a=-12642, arg_b=1, op=0 wait_result=1, parity_a=0, parity_b=1
DRIVER: arg_a=0, arg_b=0, op=0 wait_result=1, parity_a=0, parity_b=1
xmsim: *E,ERRSEV (../tb/tb_classes/scoreboard.svh,210): (time 5170 NS).
mult_pkg::scoreboard.write.CHK_RESULT
5170000 Test FAILED for A=1, B=-4083, expected: result=0  result_parity=1 arg_parity_error=0,
DRIVER: arg_a=1, arg_b=-4083, op=2 wait_result=1, parity_a=0, parity_b=1
xmsim: *E,ERRSEV (../tb/tb_classes/scoreboard.svh,210): (time 5210 NS).
mult_pkg::scoreboard.write.CHK_RESULT
5210000 Test FAILED for A=32767, B=25853, expected: result=0  result_parity=0 arg_parity_error=0,
DRIVER: arg_a=32767, arg_b=25853, op=3 wait_result=1, parity_a=0, parity_b=1
xmsim: *E,ERRSEV (../tb/tb_classes/scoreboard.svh,210): (time 5250 NS).
mult_pkg::scoreboard.write.CHK_RESULT
5250000 Test FAILED for A=-26109, B=-1, expected: result=0  result_parity=1 arg_parity_error=0,
DRIVER: arg_a=-26109, arg_b=-1, op=3 wait_result=1, parity_a=1, parity_b=1
DRIVER: arg_a=32767, arg_b=1, op=0 wait_result=1, parity_a=0, parity_b=1
DRIVER: arg_a=0, arg_b=5458, op=0 wait_result=1, parity_a=0, parity_b=1
DRIVER: arg_a=-15278, arg_b=1, op=0 wait_result=1, parity_a=0, parity_b=1
DRIVER: arg_a=1, arg_b=0, op=0 wait_result=1, parity_a=0, parity_b=1
DRIVER: arg_a=-32768, arg_b=1, op=0 wait_result=1, parity_a=0, parity_b=1
xmsim: *E,ERRSEV (../tb/tb_classes/scoreboard.svh,210): (time 5530 NS).
mult_pkg::scoreboard.write.CHK_RESULT
5530000 Test FAILED for A=1, B=0, expected: result=0  result_parity=0 arg_parity_error=0,
DRIVER: arg_a=1, arg_b=0, op=2 wait_result=1, parity_a=0, parity_b=1
xmsim: *E,ERRSEV (../tb/tb_classes/scoreboard.svh,210): (time 5570 NS).
mult_pkg::scoreboard.write.CHK_RESULT
5570000 Test FAILED for A=-1, B=7717, expected: result=0  result_parity=0 arg_parity_error=0,
DRIVER: arg_a=-1, arg_b=7717, op=2 wait_result=1, parity_a=0, parity_b=0
xmsim: *E,ERRSEV (../tb/tb_classes/scoreboard.svh,210): (time 5610 NS).
mult_pkg::scoreboard.write.CHK_RESULT
5610000 Test FAILED for A=-32768, B=32767, expected: result=0  result_parity=1 arg_parity_error=0,
DRIVER: arg_a=-32768, arg_b=32767, op=2 wait_result=1, parity_a=1, parity_b=1
xmsim: *E,ERRSEV (../tb/tb_classes/scoreboard.svh,210): (time 5650 NS).
mult_pkg::scoreboard.write.CHK_RESULT
5650000 Test FAILED for A=843, B=1, expected: result=0  result_parity=0 arg_parity_error=0,
DRIVER: arg_a=843, arg_b=1, op=4 wait_result=1, parity_a=0, parity_b=1
DRIVER: arg_a=31289, arg_b=1, op=0 wait_result=1, parity_a=1, parity_b=0
DRIVER: arg_a=1, arg_b=1, op=0 wait_result=1, parity_a=1, parity_b=0
DRIVER: arg_a=-32768, arg_b=32767, op=0 wait_result=1, parity_a=1, parity_b=0
DRIVER: arg_a=-1, arg_b=-1, op=0 wait_result=1, parity_a=1, parity_b=0
xmsim: *E,ERRSEV (../tb/tb_classes/scoreboard.svh,210): (time 5850 NS).
mult_pkg::scoreboard.write.CHK_RESULT
5850000 Test FAILED for A=-1, B=1, expected: result=0  result_parity=0 arg_parity_error=0,
DRIVER: arg_a=-1, arg_b=1, op=4 wait_result=1, parity_a=1, parity_b=0
xmsim: *E,ERRSEV (../tb/tb_classes/scoreboard.svh,210): (time 5890 NS).
mult_pkg::scoreboard.write.CHK_RESULT
5890000 Test FAILED for A=32767, B=5332, expected: result=174713644  result_parity=1 arg_parity_error=0,
DRIVER: arg_a=32767, arg_b=5332, op=1 wait_result=1, parity_a=1, parity_b=0
DRIVER: arg_a=9648, arg_b=-32768, op=0 wait_result=1, parity_a=1, parity_b=0
xmsim: *E,ERRSEV (../tb/tb_classes/scoreboard.svh,210): (time 6050 NS).
mult_pkg::scoreboard.write.CHK_RESULT
6050000 Test FAILED for A=32767, B=0, expected: result=0  result_parity=0 arg_parity_error=0,
DRIVER: arg_a=32767, arg_b=0, op=1 wait_result=1, parity_a=1, parity_b=0
xmsim: *E,ERRSEV (../tb/tb_classes/scoreboard.svh,210): (time 6110 NS).
mult_pkg::scoreboard.write.CHK_RESULT
6110000 Test FAILED for A=-1, B=-1, expected: result=0  result_parity=1 arg_parity_error=0,
DRIVER: arg_a=-1, arg_b=-1, op=4 wait_result=1, parity_a=1, parity_b=0
xmsim: *E,ERRSEV (../tb/tb_classes/scoreboard.svh,210): (time 6150 NS).
mult_pkg::scoreboard.write.CHK_RESULT
6150000 Test FAILED for A=0, B=-25286, expected: result=0  result_parity=0 arg_parity_error=0,
DRIVER: arg_a=0, arg_b=-25286, op=2 wait_result=1, parity_a=1, parity_b=1
xmsim: *E,ERRSEV (../tb/tb_classes/scoreboard.svh,210): (time 6190 NS).
mult_pkg::scoreboard.write.CHK_RESULT
6190000 Test FAILED for A=-1, B=32767, expected: result=0  result_parity=0 arg_parity_error=0,
DRIVER: arg_a=-1, arg_b=32767, op=4 wait_result=1, parity_a=1, parity_b=1
xmsim: *E,ERRSEV (../tb/tb_classes/scoreboard.svh,210): (time 6230 NS).
mult_pkg::scoreboard.write.CHK_RESULT
6230000 Test FAILED for A=-32768, B=32767, expected: result=0  result_parity=1 arg_parity_error=0,
DRIVER: arg_a=-32768, arg_b=32767, op=2 wait_result=1, parity_a=1, parity_b=0
DRIVER: arg_a=10647, arg_b=-1, op=0 wait_result=1, parity_a=0, parity_b=1
DRIVER: arg_a=-1, arg_b=0, op=0 wait_result=1, parity_a=0, parity_b=1
DRIVER: arg_a=32767, arg_b=1, op=0 wait_result=1, parity_a=0, parity_b=1
xmsim: *E,ERRSEV (../tb/tb_classes/scoreboard.svh,210): (time 6390 NS).
mult_pkg::scoreboard.write.CHK_RESULT
6390000 Test FAILED for A=13775, B=0, expected: result=0  result_parity=0 arg_parity_error=0,
DRIVER: arg_a=13775, arg_b=0, op=1 wait_result=1, parity_a=0, parity_b=1
xmsim: *E,ERRSEV (../tb/tb_classes/scoreboard.svh,210): (time 6450 NS).
mult_pkg::scoreboard.write.CHK_RESULT
6450000 Test FAILED for A=32767, B=25930, expected: result=849648310  result_parity=1 arg_parity_error=0,
DRIVER: arg_a=32767, arg_b=25930, op=1 wait_result=1, parity_a=0, parity_b=0
DRIVER: arg_a=-1, arg_b=1, op=0 wait_result=1, parity_a=1, parity_b=1
DRIVER: arg_a=-4474, arg_b=0, op=0 wait_result=1, parity_a=1, parity_b=1
DRIVER: arg_a=-2604, arg_b=-26762, op=0 wait_result=1, parity_a=1, parity_b=1
xmsim: *E,ERRSEV (../tb/tb_classes/scoreboard.svh,210): (time 6690 NS).
mult_pkg::scoreboard.write.CHK_RESULT
6690000 Test FAILED for A=-1, B=32767, expected: result=-32767  result_parity=0 arg_parity_error=0,
DRIVER: arg_a=-1, arg_b=32767, op=1 wait_result=1, parity_a=1, parity_b=1
xmsim: *E,ERRSEV (../tb/tb_classes/scoreboard.svh,210): (time 6770 NS).
mult_pkg::scoreboard.write.CHK_RESULT
6770000 Test FAILED for A=0, B=-32768, expected: result=0  result_parity=0 arg_parity_error=0,
DRIVER: arg_a=0, arg_b=-32768, op=3 wait_result=1, parity_a=0, parity_b=1
DRIVER: arg_a=0, arg_b=-9626, op=0 wait_result=1, parity_a=0, parity_b=0
